no:,ProductId,Product,Varient,Stocks
1,29,Grape Seedless,1 kg,
2,28,Banana,1 kg,
3,27,Tomato,2 kg,
4,26,Tomato,1 kg,
5,25,Orange Valencia,1 kg,
6,24,Apple Shimla,1 kg,
7,20,Grape,1 kg,
8,15,Mango Selam,5 kg,
9,14,Mango Selam,1 kg,
10,13,Litchi,1 kg,
